…
# Transforming Year and Month into factors
Flights$Year <- as.factor(Flights$Year)
Flights$month <- factor(Flights$month, 
                              levels = c('January', 'February', 'March',
                                         'April', 'May', 'June', 'July',
                                         'August', 'September', 'October',
                                         'November', 'December'))

arrange(Flights, month)
```

    ## # A tibble: 24 × 3
    ##    Year  month    Total_Flights
    ##    <fct> <fct>            <int>
    ##  1 2006  January         570130
    ##  2 2007  January         604582
    ##  3 2006  February        518645
    ##  4 2007  February        538878
    ##  5 2006  March           596578
    ##  6 2007  March           621057
    ##  7 2006  April           577718
    ##  8 2007  April           602317
    ##  9 2006  May             594626
    ## 10 2007  May             623326
    ## # … with 14 more rows
…
